EDS_222_delta-turbidity-analysis
…
## Using `DATE` as index variable.

## # A tsibble: 1,935 x 4 [1D]
##    time       turbidity_fnu gage_height HourlyWindSpeed
##    <date>             <dbl>       <dbl>           <dbl>
##  1 2015-10-01          2.99        16.8            4.71
##  2 2015-10-02          2.9         16.5            4.65
##  3 2015-10-03          2.99        16.9            7.26
##  4 2015-10-04          2.81        17.2            5.68
##  5 2015-10-05          2.50        17.0            4.88
##  6 2015-10-06          2.57        16.8            5   
##  7 2015-10-07          2.53        16.8            3.07
##  8 2015-10-08          2.64        16.5            2.29
##  9 2015-10-09          3.42        16.4            4.10
## 10 2015-10-10          2.58        16.5            5.01
## #  with 1,925 more rows
…
